^L:\VICAM-DEVEL2013\EVIACAM-DEVEL\EVIACAM-DEVEL\SRC\X64\RELEASE\BLINK.OBJ|L:\VICAM-DEVEL2013\EVIACAM-DEVEL\EVIACAM-DEVEL\SRC\X64\RELEASE\CAUTOSTART.OBJ|L:\VICAM-DEVEL2013\EVIACAM-DEVEL\EVIACAM-DEVEL\SRC\X64\RELEASE\CHECKUPDATES.OBJ|L:\VICAM-DEVEL2013\EVIACAM-DEVEL\EVIACAM-DEVEL\SRC\X64\RELEASE\CHECKUPDATES_MANAGER.OBJ|L:\VICAM-DEVEL2013\EVIACAM-DEVEL\EVIACAM-DEVEL\SRC\X64\RELEASE\CHECKUPDATES_UI.OBJ|L:\VICAM-DEVEL2013\EVIACAM-DEVEL\EVIACAM-DEVEL\SRC\X64\RELEASE\CLICKWINDOW.OBJ|L:\VICAM-DEVEL2013\EVIACAM-DEVEL\EVIACAM-DEVEL\SRC\X64\RELEASE\CLICKWINDOWBITMAP.OBJ|L:\VICAM-DEVEL2013\EVIACAM-DEVEL\EVIACAM-DEVEL\SRC\X64\RELEASE\CLICKWINDOWCONTROLLER.OBJ|L:\VICAM-DEVEL2013\EVIACAM-DEVEL\EVIACAM-DEVEL\SRC\X64\RELEASE\CLICKWINDOWTEXT.OBJ|L:\VICAM-DEVEL2013\EVIACAM-DEVEL\EVIACAM-DEVEL\SRC\X64\RELEASE\CMOTIONCALIBRATION.OBJ|L:\VICAM-DEVEL2013\EVIACAM-DEVEL\EVIACAM-DEVEL\SRC\X64\RELEASE\CVISUALALERT.OBJ|L:\VICAM-DEVEL2013\EVIACAM-DEVEL\EVIACAM-DEVEL\SRC\X64\RELEASE\DWELLCLICK.OBJ|L:\VICAM-DEVEL2013\EVIACAM-DEVEL\EVIACAM-DEVEL\SRC\X64\RELEASE\EVIACAMAPP.OBJ|L:\VICAM-DEVEL2013\EVIACAM-DEVEL\EVIACAM-DEVEL\SRC\X64\RELEASE\GESTURECLICK.OBJ|L:\VICAM-DEVEL2013\EVIACAM-DEVEL\EVIACAM-DEVEL\SRC\X64\RELEASE\GUI.RES|L:\VICAM-DEVEL2013\EVIACAM-DEVEL\EVIACAM-DEVEL\SRC\X64\RELEASE\HOTKEYMANAGER.OBJ|L:\VICAM-DEVEL2013\EVIACAM-DEVEL\EVIACAM-DEVEL\SRC\X64\RELEASE\KEYBOARDCODE.OBJ|L:\VICAM-DEVEL2013\EVIACAM-DEVEL\EVIACAM-DEVEL\SRC\X64\RELEASE\NEWTRACKERINFORMATIONDLG.OBJ|L:\VICAM-DEVEL2013\EVIACAM-DEVEL\EVIACAM-DEVEL\SRC\X64\RELEASE\PATHS.OBJ|L:\VICAM-DEVEL2013\EVIACAM-DEVEL\EVIACAM-DEVEL\SRC\X64\RELEASE\POINTERACTION.OBJ|L:\VICAM-DEVEL2013\EVIACAM-DEVEL\EVIACAM-DEVEL\SRC\X64\RELEASE\SOURCE.OBJ|L:\VICAM-DEVEL2013\EVIACAM-DEVEL\EVIACAM-DEVEL\SRC\X64\RELEASE\VIACAMCONTROLLER.OBJ|L:\VICAM-DEVEL2013\EVIACAM-DEVEL\EVIACAM-DEVEL\SRC\X64\RELEASE\VISIONPIPELINE.OBJ|L:\VICAM-DEVEL2013\EVIACAM-DEVEL\EVIACAM-DEVEL\SRC\X64\RELEASE\WABOUT.OBJ|L:\VICAM-DEVEL2013\EVIACAM-DEVEL\EVIACAM-DEVEL\SRC\X64\RELEASE\WCAMERADIALOG.OBJ|L:\VICAM-DEVEL2013\EVIACAM-DEVEL\EVIACAM-DEVEL\SRC\X64\RELEASE\WCONFIGURATION.OBJ|L:\VICAM-DEVEL2013\EVIACAM-DEVEL\EVIACAM-DEVEL\SRC\X64\RELEASE\WCONFIRMCALIBRATION.OBJ|L:\VICAM-DEVEL2013\EVIACAM-DEVEL\EVIACAM-DEVEL\SRC\X64\RELEASE\WEBSITE.OBJ|L:\VICAM-DEVEL2013\EVIACAM-DEVEL\EVIACAM-DEVEL\SRC\X64\RELEASE\WGETKEY.OBJ|L:\VICAM-DEVEL2013\EVIACAM-DEVEL\EVIACAM-DEVEL\SRC\X64\RELEASE\WMOTIONCALIBRATIONX.OBJ|L:\VICAM-DEVEL2013\EVIACAM-DEVEL\EVIACAM-DEVEL\SRC\X64\RELEASE\WMOTIONCALIBRATIONY.OBJ|L:\VICAM-DEVEL2013\EVIACAM-DEVEL\EVIACAM-DEVEL\SRC\X64\RELEASE\WVIACAM.OBJ|L:\VICAM-DEVEL2013\EVIACAM-DEVEL\EVIACAM-DEVEL\SRC\X64\RELEASE\WWIZARD.OBJ|L:\VICAM-DEVEL2013\EVIACAM-DEVEL\EVIACAM-DEVEL\SRC\X64\RELEASE\WWIZARDMANAGER.OBJ|L:\VICAM-DEVEL2013\EVIACAM-DEVEL\EVIACAM-DEVEL\WIN32\RELEASE\CREAVISION.LIB|L:\VICAM-DEVEL2013\EVIACAM-DEVEL\EVIACAM-DEVEL\WIN32\RELEASE\WXCAMWINDOW.LIB|L:\VICAM-DEVEL2013\EVIACAM-DEVEL\EVIACAM-DEVEL\WIN32\RELEASE\WXUTIL.LIB
L:\WXWIDGETS302\LIB\VC_X64_LIB\WXMSW30U_RICHTEXT.LIB
L:\WXWIDGETS302\LIB\VC_X64_LIB\WXMSW30U_AUI.LIB
L:\WXWIDGETS302\LIB\VC_X64_LIB\WXMSW30U_CORE.LIB
L:\WXWIDGETS302\LIB\VC_X64_LIB\WXBASE30U.LIB
L:\WXWIDGETS302\LIB\VC_X64_LIB\WXTIFF.LIB
L:\WXWIDGETS302\LIB\VC_X64_LIB\WXJPEG.LIB
L:\WXWIDGETS302\LIB\VC_X64_LIB\WXPNG.LIB
L:\WXWIDGETS302\LIB\VC_X64_LIB\WXZLIB.LIB
L:\WXWIDGETS302\LIB\VC_X64_LIB\WXREGEXU.LIB
L:\WXWIDGETS302\LIB\VC_X64_LIB\WXMSW30U_ADV.LIB
L:\WXWIDGETS302\LIB\VC_X64_LIB\WXMSW30U_HTML.LIB
L:\WXWIDGETS302\LIB\VC_X64_LIB\WXMSW30U_XRC.LIB
L:\WXWIDGETS302\LIB\VC_X64_LIB\WXBASE30U_NET.LIB
L:\WXWIDGETS302\LIB\VC_X64_LIB\WXBASE30U_XML.LIB
D:\PROYECTO_LIBRERIAS\OPENCV24\OPENCV\BUILD\X64\VC12\LIB\OPENCV_CORE2413.LIB
D:\PROYECTO_LIBRERIAS\OPENCV24\OPENCV\BUILD\X64\VC12\LIB\OPENCV_LEGACY2413.LIB
D:\PROYECTO_LIBRERIAS\OPENCV24\OPENCV\BUILD\X64\VC12\LIB\OPENCV_OBJDETECT2413.LIB
D:\PROYECTO_LIBRERIAS\OPENCV24\OPENCV\BUILD\X64\VC12\LIB\OPENCV_HIGHGUI2413.LIB
D:\PROYECTO_LIBRERIAS\OPENCV24\OPENCV\BUILD\X64\VC12\LIB\OPENCV_IMGPROC2413.LIB
D:\PROYECTO_LIBRERIAS\OPENCV24\OPENCV\BUILD\X64\VC12\LIB\OPENCV_VIDEO2413.LIB
L:\WXWIDGETS302\LIB\VC_X64_LIB\WXEXPAT.LIB
C:\PROGRAM FILES (X86)\WINDOWS KITS\8.1\LIB\WINV6.3\UM\X64\COMCTL32.LIB
C:\PROGRAM FILES (X86)\WINDOWS KITS\8.1\LIB\WINV6.3\UM\X64\RPCRT4.LIB
C:\PROGRAM FILES (X86)\WINDOWS KITS\8.1\LIB\WINV6.3\UM\X64\WINMM.LIB
L:\VICAM-DEVEL2013\EVIACAM-DEVEL\EVIACAM-DEVEL\WIN32\RELEASE\SIMPLELOG.LIB
L:\VICAM-DEVEL2013\EVIACAM-DEVEL\EVIACAM-DEVEL\WIN32\RELEASE\WXCAMWINDOW.LIB
L:\VICAM-DEVEL2013\EVIACAM-DEVEL\EVIACAM-DEVEL\WIN32\RELEASE\WXUTIL.LIB
C:\PROGRAM FILES (X86)\WINDOWS KITS\8.1\LIB\WINV6.3\UM\X64\STRMIIDS.LIB
C:\PROGRAM FILES (X86)\WINDOWS KITS\8.1\LIB\WINV6.3\UM\X64\UUID.LIB
C:\PROGRAM FILES (X86)\WINDOWS KITS\8.1\LIB\WINV6.3\UM\X64\QUARTZ.LIB
C:\PROGRAM FILES (X86)\WINDOWS KITS\8.1\LIB\WINV6.3\UM\X64\WSOCK32.LIB
C:\PROGRAM FILES (X86)\WINDOWS KITS\8.1\LIB\WINV6.3\UM\X64\KERNEL32.LIB
C:\PROGRAM FILES (X86)\WINDOWS KITS\8.1\LIB\WINV6.3\UM\X64\USER32.LIB
C:\PROGRAM FILES (X86)\WINDOWS KITS\8.1\LIB\WINV6.3\UM\X64\GDI32.LIB
C:\PROGRAM FILES (X86)\WINDOWS KITS\8.1\LIB\WINV6.3\UM\X64\WINSPOOL.LIB
C:\PROGRAM FILES (X86)\WINDOWS KITS\8.1\LIB\WINV6.3\UM\X64\COMDLG32.LIB
C:\PROGRAM FILES (X86)\WINDOWS KITS\8.1\LIB\WINV6.3\UM\X64\ADVAPI32.LIB
C:\PROGRAM FILES (X86)\WINDOWS KITS\8.1\LIB\WINV6.3\UM\X64\SHELL32.LIB
C:\PROGRAM FILES (X86)\WINDOWS KITS\8.1\LIB\WINV6.3\UM\X64\OLE32.LIB
C:\PROGRAM FILES (X86)\WINDOWS KITS\8.1\LIB\WINV6.3\UM\X64\OLEAUT32.LIB
C:\PROGRAM FILES (X86)\WINDOWS KITS\8.1\LIB\WINV6.3\UM\X64\ODBC32.LIB
C:\PROGRAM FILES (X86)\WINDOWS KITS\8.1\LIB\WINV6.3\UM\X64\ODBCCP32.LIB
L:\VICAM-DEVEL2013\EVIACAM-DEVEL\EVIACAM-DEVEL\SRC\X64\RELEASE\GUI.RES
L:\VICAM-DEVEL2013\EVIACAM-DEVEL\EVIACAM-DEVEL\SRC\X64\RELEASE\BLINK.OBJ
L:\VICAM-DEVEL2013\EVIACAM-DEVEL\EVIACAM-DEVEL\SRC\X64\RELEASE\CAUTOSTART.OBJ
L:\VICAM-DEVEL2013\EVIACAM-DEVEL\EVIACAM-DEVEL\SRC\X64\RELEASE\CHECKUPDATES.OBJ
L:\VICAM-DEVEL2013\EVIACAM-DEVEL\EVIACAM-DEVEL\SRC\X64\RELEASE\CHECKUPDATES_MANAGER.OBJ
L:\VICAM-DEVEL2013\EVIACAM-DEVEL\EVIACAM-DEVEL\SRC\X64\RELEASE\CHECKUPDATES_UI.OBJ
L:\VICAM-DEVEL2013\EVIACAM-DEVEL\EVIACAM-DEVEL\SRC\X64\RELEASE\SOURCE.OBJ
L:\VICAM-DEVEL2013\EVIACAM-DEVEL\EVIACAM-DEVEL\SRC\X64\RELEASE\KEYBOARDCODE.OBJ
L:\VICAM-DEVEL2013\EVIACAM-DEVEL\EVIACAM-DEVEL\SRC\X64\RELEASE\CLICKWINDOW.OBJ
L:\VICAM-DEVEL2013\EVIACAM-DEVEL\EVIACAM-DEVEL\SRC\X64\RELEASE\CLICKWINDOWBITMAP.OBJ
L:\VICAM-DEVEL2013\EVIACAM-DEVEL\EVIACAM-DEVEL\SRC\X64\RELEASE\CLICKWINDOWCONTROLLER.OBJ
L:\VICAM-DEVEL2013\EVIACAM-DEVEL\EVIACAM-DEVEL\SRC\X64\RELEASE\CLICKWINDOWTEXT.OBJ
L:\VICAM-DEVEL2013\EVIACAM-DEVEL\EVIACAM-DEVEL\SRC\X64\RELEASE\CMOTIONCALIBRATION.OBJ
L:\VICAM-DEVEL2013\EVIACAM-DEVEL\EVIACAM-DEVEL\SRC\X64\RELEASE\CVISUALALERT.OBJ
L:\VICAM-DEVEL2013\EVIACAM-DEVEL\EVIACAM-DEVEL\SRC\X64\RELEASE\DWELLCLICK.OBJ
L:\VICAM-DEVEL2013\EVIACAM-DEVEL\EVIACAM-DEVEL\SRC\X64\RELEASE\EVIACAMAPP.OBJ
L:\VICAM-DEVEL2013\EVIACAM-DEVEL\EVIACAM-DEVEL\SRC\X64\RELEASE\GESTURECLICK.OBJ
L:\VICAM-DEVEL2013\EVIACAM-DEVEL\EVIACAM-DEVEL\SRC\X64\RELEASE\HOTKEYMANAGER.OBJ
L:\VICAM-DEVEL2013\EVIACAM-DEVEL\EVIACAM-DEVEL\SRC\X64\RELEASE\NEWTRACKERINFORMATIONDLG.OBJ
L:\VICAM-DEVEL2013\EVIACAM-DEVEL\EVIACAM-DEVEL\SRC\X64\RELEASE\PATHS.OBJ
L:\VICAM-DEVEL2013\EVIACAM-DEVEL\EVIACAM-DEVEL\SRC\X64\RELEASE\POINTERACTION.OBJ
L:\VICAM-DEVEL2013\EVIACAM-DEVEL\EVIACAM-DEVEL\SRC\X64\RELEASE\VIACAMCONTROLLER.OBJ
L:\VICAM-DEVEL2013\EVIACAM-DEVEL\EVIACAM-DEVEL\SRC\X64\RELEASE\VISIONPIPELINE.OBJ
L:\VICAM-DEVEL2013\EVIACAM-DEVEL\EVIACAM-DEVEL\SRC\X64\RELEASE\WABOUT.OBJ
L:\VICAM-DEVEL2013\EVIACAM-DEVEL\EVIACAM-DEVEL\SRC\X64\RELEASE\WCAMERADIALOG.OBJ
L:\VICAM-DEVEL2013\EVIACAM-DEVEL\EVIACAM-DEVEL\SRC\X64\RELEASE\WCONFIGURATION.OBJ
L:\VICAM-DEVEL2013\EVIACAM-DEVEL\EVIACAM-DEVEL\SRC\X64\RELEASE\WCONFIRMCALIBRATION.OBJ
L:\VICAM-DEVEL2013\EVIACAM-DEVEL\EVIACAM-DEVEL\SRC\X64\RELEASE\WEBSITE.OBJ
L:\VICAM-DEVEL2013\EVIACAM-DEVEL\EVIACAM-DEVEL\SRC\X64\RELEASE\WGETKEY.OBJ
L:\VICAM-DEVEL2013\EVIACAM-DEVEL\EVIACAM-DEVEL\SRC\X64\RELEASE\WMOTIONCALIBRATIONX.OBJ
L:\VICAM-DEVEL2013\EVIACAM-DEVEL\EVIACAM-DEVEL\SRC\X64\RELEASE\WMOTIONCALIBRATIONY.OBJ
L:\VICAM-DEVEL2013\EVIACAM-DEVEL\EVIACAM-DEVEL\SRC\X64\RELEASE\WVIACAM.OBJ
L:\VICAM-DEVEL2013\EVIACAM-DEVEL\EVIACAM-DEVEL\SRC\X64\RELEASE\WWIZARD.OBJ
L:\VICAM-DEVEL2013\EVIACAM-DEVEL\EVIACAM-DEVEL\SRC\X64\RELEASE\WWIZARDMANAGER.OBJ
L:\VICAM-DEVEL2013\EVIACAM-DEVEL\EVIACAM-DEVEL\WIN32\RELEASE\CREAVISION.LIB
C:\WINDOWS\GLOBALIZATION\SORTING\SORTDEFAULT.NLS
L:\VS2013\VC\LIB\AMD64\MSVCPRT.LIB
L:\VS2013\VC\LIB\AMD64\MSVCRT.LIB
L:\VS2013\VC\LIB\AMD64\OLDNAMES.LIB
C:\PROGRAM FILES (X86)\WINDOWS KITS\8.1\LIB\WINV6.3\UM\X64\OLEACC.LIB
C:\PROGRAM FILES (X86)\WINDOWS KITS\8.1\LIB\WINV6.3\UM\X64\WS2_32.LIB
C:\PROGRAM FILES (X86)\WINDOWS KITS\8.1\LIB\WINV6.3\UM\X64\IMM32.LIB
C:\PROGRAM FILES (X86)\WINDOWS KITS\8.1\BIN\X86\RC.EXE
L:\VS2013\VC\BIN\CVTRES.EXE
C:\WINDOWS\SYSTEM32\TZRES.DLL
